Coverting a dataframe into a timeline
…
# Now let’s load in some data
#milestones is the demo data
#actions is my data

df <- readr::read_csv(here::here('./data/milestones.csv'))
#> Parsed with column specification:
#> cols(
#>   month = col_double(),
#>   year = col_double(),
#>   milestone = col_character(),
#>   status = col_character()
#> )
df
#> # A tibble: 22 x 4
#>    month  year milestone    status   
#>    <dbl> <dbl> <chr>        <chr>    
#>  1     6  2017 Milestone 1  Complete 
#>  2     7  2017 Milestone 2  Complete 
#>  3    10  2017 Milestone 3  Complete 
#>  4    12  2017 Milestone 4  Complete 
#>  5     1  2018 Milestone 5  Complete 
#>  6     1  2018 Milestone 6  Complete 
#>  7     2  2018 Milestone 7  Complete 
#>  8     5  2018 Milestone 8  Complete 
#>  9     6  2018 Milestone 9  On Target
#> 10     6  2018 Milestone 10 On Target
#> # ... with 12 more rows
…
