…
By integrating these stage with some `dataspice` code/approach's allows for me to generate metadata from each sheet of the excel file quickly using R. Here are the steps to do this.


```r
#dataspice from github
library(dataspice)

#each project needs to be imported and then saved as csv in raw_data file to document variable names etc correctly into the json dataset.
# raw_data <- 
project2 <- readxl::read_excel("./data/raw_data/Sem two planning.xlsx", sheet = 4)
project2
```

```
## # A tibble: 22 x 11
##    eventCode shortName month startDate finishDate startTime          
##    <chr>     <chr>     <chr> <chr>     <chr>      <dttm>             
##  1 scr20200~ WorldRef~ june  20/06/20~ 20/06/2020 1899-12-31 09:00:00
##  2 scr20200~ Oweek     july  44039     44043      1899-12-31 09:00:00
##  3 scr20200~ ReasonSt~ augu~ 44044     <NA>       1899-12-31 09:00:00
##  4 scr20200~ SSAFsurv~ augu~ 44044     <NA>       1899-12-31 09:00:00
##  5 scr20200~ TownHall2 augu~ 44044     <NA>       1899-12-31 09:00:00
##  6 scr20200~ openDay   augu~ 44044     <NA>       1899-12-31 09:00:00
##  7 scr20200~ nic21st   augu~ 44044     <NA>       NA                 
##  8 scr20200~ SSAFbids  sept~ 44075     <NA>       1899-12-31 09:00:00
##  9 scr20200~ Grad      sept~ 44075     <NA>       1899-12-31 09:00:00
## 10 scr20200~ SSAFFunds sept~ 44075     <NA>       NA                 
## # ... with 12 more rows, and 5 more variables: endTime <dttm>,
## #   description <chr>, src <lgl>, ucX <lgl>, week <lgl>
```
…
```r
# there should be an actions...
data_actions
```

```
## # A tibble: 248 x 14
##      Day action month person notes eventCode ...7  ...8  ...9  ...10 ...11 ...12
##    <dbl> <chr>  <chr> <chr>  <lgl> <lgl>     <lgl> <lgl> <lgl> <lgl> <lgl> <lgl>
##  1     1 <NA>   june  <NA>   NA    NA        NA    NA    NA    NA    NA    NA   
##  2     2 <NA>   june  <NA>   NA    NA        NA    NA    NA    NA    NA    NA   
##  3     3 Acade~ june  Majid~ NA    NA        NA    NA    NA    NA    NA    NA   
##  4     4 Acade~ june  Lola;~ NA    NA        NA    NA    NA    NA    NA    NA   
##  5     5 <NA>   june  <NA>   NA    NA        NA    NA    NA    NA    NA    NA   
##  6     6 <NA>   june  <NA>   NA    NA        NA    NA    NA    NA    NA    NA   
##  7     7 <NA>   june  <NA>   NA    NA        NA    NA    NA    NA    NA    NA   
##  8     8 <NA>   june  <NA>   NA    NA        NA    NA    NA    NA    NA    NA   
##  9     9 <NA>   june  <NA>   NA    NA        NA    NA    NA    NA    NA    NA   
## 10    10 <NA>   june  <NA>   NA    NA        NA    NA    NA    NA    NA    NA   
## # ... with 238 more rows, and 2 more variables: ...13 <lgl>, ...14 <chr>
```
…
```r
df
```

```
## # A tibble: 22 x 4
##    month  year milestone    status   
##    <dbl> <dbl> <chr>        <chr>    
##  1     6  2017 Milestone 1  Complete 
##  2     7  2017 Milestone 2  Complete 
##  3    10  2017 Milestone 3  Complete 
##  4    12  2017 Milestone 4  Complete 
##  5     1  2018 Milestone 5  Complete 
##  6     1  2018 Milestone 6  Complete 
##  7     2  2018 Milestone 7  Complete 
##  8     5  2018 Milestone 8  Complete 
##  9     6  2018 Milestone 9  On Target
## 10     6  2018 Milestone 10 On Target
## # ... with 12 more rows
```
…
