Chapter 2 Methods | My calender management
…
One of the tricky bits about timelines is the format of the date and time of each event. This is different for each event so therefore we have four columns to incorporate this information in the following from for this repository and database. This will also mean that some of the information in other formats will have to be converted into these dimension and any other elements defined in each dataset I am combining to make a overall timeline.

2.1.1 Overall timeline

By integrating these stage with some dataspice code/approach’s allows for me to generate metadata from each sheet of the excel file quickly using R. Here are the steps to do this.

#dataspice from github
library(dataspice)

#each project needs to be imported and then saved as csv in raw_data file to document variable names etc correctly into the json dataset.
# raw_data <- 
project2 <- readxl::read_excel("./data/Sem two planning.xlsx", sheet = 4)
project2

## # A tibble: 22 x 9
##    eventCode  shortName month startDate finishDate description src   ucX   week 
##    <chr>      <chr>     <chr> <chr>     <chr>      <chr>       <lgl> <lgl> <lgl>
##  1 scr202007~ WorldRef~ june  20/06/20~ 20/06/2020 World Refu~ NA    NA    NA   
##  2 scr202007~ Oweek     july  <NA>      <NA>       O week for~ NA    NA    NA   
##  3 scr202007~ ReasonSt~ augu~ <NA>      <NA>       Statement ~ NA    NA    NA   
##  4 scr202007~ SSAFsurv~ augu~ <NA>      <NA>       SSAF Survey NA    NA    NA   
##  5 scr202007~ TownHall2 augu~ <NA>      <NA>       Town HAll   NA    NA    NA   
##  6 scr202007~ openDay   augu~ <NA>      <NA>       Open Day 2~ NA    NA    NA   
##  7 scr202007~ nic21st   augu~ <NA>      <NA>       Nicks 21st~ NA    NA    NA   
##  8 scr202007~ SSAFbids  sept~ <NA>      <NA>       SSAF Bids ~ NA    NA    NA   
##  9 scr202007~ Grad      sept~ <NA>      <NA>       Graduation  NA    NA    NA   
## 10 scr202007~ SSAFFunds sept~ <NA>      <NA>       SSAF Commi~ NA    NA    NA   
## # ... with 12 more rows
…
